Calculate correlation matrix with significance tests and descriptives — cor_matrix • timesaveR
…
#> eatveg          NA         NA         NA         NA        NA     NA
#> dosprt          NA         NA         NA         NA        NA     NA
#> cgtsmke         NA         NA         NA         NA        NA     NA
#> alcfreq         NA         NA         NA         NA        NA     NA
#> fltdpr          NA         NA         NA         NA        NA     NA
#> flteeff         NA         NA         NA         NA        NA     NA
#> slprl           NA         NA         NA         NA        NA     NA
#> wrhpp   -0.1970604         NA         NA         NA        NA     NA
#> fltlnl   0.2198737 -0.2661400         NA         NA        NA     NA
#> enjlf   -0.1855545  0.6158489 -0.2505616         NA        NA     NA
#> fltsd    0.2920357 -0.3331276  0.4245290 -0.2994627        NA     NA
#> cldgng   0.2922681 -0.2114571  0.2491458 -0.2390509 0.2900774     NA
#> 
#> $desc
#> # A tibble: 22 × 3
#>    var          M     SD
#>    <chr>    <dbl>  <dbl>
#>  1 gndr      1.52  0.500
#>  2 agea     50.6  18.5  
#>  3 eisced    4.35  4.83 
#>  4 pweight   2.45  0.211
#>  5 pspwght   1     0.597
#>  6 health    2.26  0.915
#>  7 height  170.   10.2  
#>  8 weight   74.9  16.6  
#>  9 icbrnct   1.12  0.320
#> 10 etfruit   3.04  1.43 
#> # ℹ 12 more rows
…
